MyRunCtM043C05   12 Feb 2019
671
30
1800
36
12
14
20
31
2
0
0
0
0
0
0
0
0
2
0
0
0
0
0
0
0
0
0
0
0
0
3
20
90
91
81
80
66
60
45
22
0
0
0
0
0
0
0
0
0
0
0
0
0
0
0
60
14
0
0
0
0
0
0
0
0
0
0
0
0
0
0
0
0
0
4
0
5
2
2
24
95
82
84
72
67
61
35
0
0
0
0
0
0
0
0
0
0
0
0
0
0
2
4
16
6
0
0
0
0
0
0
0
0
0
0
0
0
0
0
0
0
0
0
0
0
0
0
8
13
13
6
35
1
19
43
44
43
2
0
27
0
70
14
4
31
8
4
7
3
5
0
0
0
0
0
0
0
0
0
0
0
0
0
0
0
0
0
0
0
0
0
0
5
2
11
4
21
2
64
82
48
23
56
48
43
13
56
30
14
17
28
2
4
54
39
4
0
0
0
0
0
0
0
0
0
0
0
0
0
0
0
0
0
0
0
0
0
1
1
0
0
4
4
2
11
11
14
70
72
78
72
42
6
0
0
15
24
0
39
21
5
1
50
0
2
0
0
0
0
0
0
0
0
0
0
0
0
0
0
0
0
0
0
0
2
0
5
12
1
13
0
37
31
29
14
16
80
52
23
68
0
52
54
8
58
51
54
24
17
2
2
0
0
0
0
0
0
0
0
0
0
0
0
0
0
0
0
0
0
0
0
0
0
0
3
4
4
4
0
11
32
37
31
45
30
29
15
51
34
7
59
39
32
36
40
28
46
0
0
0
2
0
0
0
0
0
0
0
0
0
0
0
0
0
0
0
0
0
0
0
0
1
8
4
2
0
4
0
9
36
28
8
7
57
42
43
38
41
11
13
51
28
27
0
43
33
0
0
0
0
0
0
0
0
0
0
0
0
0
0
0
0
0
0
0
0
0
0
0
4
2
3
9
0
24
0
28
44
63
40
16
44
33
60
19
29
31
30
44
34
46
0
6
0
0
0
0
0
0
0
0
0
0
0
0
0
0
0
0
0
0
0
0
0
0
0
9
2
1
0
10
0
2
54
38
0
63
16
36
14
46
19
63
38
53
37
34
5
64
37
2
0
0
0
0
0
0
0
0
0
0
0
0
0
0
0
0
0
0
0
0
0
9
2
12
0
2
0
16
10
27
39
0
41
30
30
2
0
62
39
11
42
40
16
20
2
0
0
64
0
0
0
0
0
0
0
0
0
0
0
0
0
0
0
0
0
0
0
0
2
10
4
16
11
0
33
33
24
46
22
36
54
20
48
29
35
37
36
32
27
58
30
18
11
34
0
0
0
0
0
0
0
0
0
0
0
0
0
0
0
0
0
0
0
0
0
0
33
9
34
12
42
14
40
10
17
54
41
39
7
49
45
34
36
30
26
8
44
57
60
53
40
23
1
0
0
0
0
0
0
0
0
0
0
0
0
0
0
0
0
0
2
6
18
4
23
23
25
10
26
10
45
31
27
39
35
28
43
34
49
36
49
50
55
36
41
44
0
0
0
0
0
0
0
